Final Project
…
## # A tibble: 19,501 x 13
## # Groups:   treated, yrmonth [54]
##    start_date  city yrmonth Berlin count_month cost_m2_month_r cost_m2_month_r
##    <date>     <dbl>   <dbl>  <dbl>       <dbl>            <dbl>            <dbl>
##  1 2018-01-05     1     696      1        1631               NA             14.0
##  2 2018-01-03     1     696      1        1631               NA             14.0
##  3 2018-01-06     1     696      1        1631               NA             14.0
##  4 2018-01-06     1     696      1        1631               NA             14.0
##  5 2018-01-03     1     696      1        1631               NA             14.0
##  6 2018-01-05     1     696      1        1631               NA             14.0
##  7 2018-01-04     1     696      1        1631               NA             14.0
##  8 2018-01-04     1     696      1        1631               NA             14.0
##  9 2018-01-07     1     696      1        1631               NA             14.0
## 10 2018-01-06     1     696      1        1631               NA             14.0
## #  with 19,491 more rows, and 6 more variables:
## #   cost_m2_month_reg_avg_c_H <dbl>, treated <dbl>,
## #   cost_m2_month_reg_avg <dbl>, cost_m2 <dbl>, month_treated <dbl>,
## #   monthly_price_t <dbl>
…
